Chapter 7 dplyr을 이용한 데이터 변환 | R 프로그래밍 (개정판)
…
dplyr 함수에서는 데이터프레임의 열을 변수처럼 사용할 수 있어서 R의 기본 기능보다 더 짧은 명령문으로 데이터의 조작과 변환이 가능하다.

R의 기본 함수들은 한 함수가 여러 가지 변환을 수행하고 서로의 기능이 중복되는데 반해, dplyr 패키지의 함수는 오직 하나의 기능만을 수행하고 서로 기능이 중복되지 않아서 명령문을 이해하기 쉽다.

R의 기본 함수들이 입력과 출력 형식이 제각각인데 반해, dplyr 패키지의 함수는 공통된 입력과 출력 형식을 사용하므로 여러 단계를 거치는 복잡한 데이터 변환 작업도 dplyr 함수를 파이프 연산자로 연결하여 쉽게 구현할 수 있다.

7.3.4 mpg 데이터

이 장에서는 ggplot2() 패키지에서 제공하는 mpg 데이터를 이용하여 정돈 데이터를 변환하는 함수를 설명한다.

다음 명령을 이용하여 mpg 데이터를 출력해 보자. 화면의 크기에 따라 출력되는 내용이 책과는 조금 다를 수 있다.

mpg

#> # A tibble: 234 × 11
#>    manufacturer model      displ  year   cyl trans drv     cty   hwy fl    class
#>    <chr>        <chr>      <dbl> <int> <int> <chr> <chr> <int> <int> <chr> <chr>
#>  1 audi         a4           1.8  1999     4 auto… f        18    29 p     comp…
#>  2 audi         a4           1.8  1999     4 manu… f        21    29 p     comp…
#>  3 audi         a4           2    2008     4 manu… f        20    31 p     comp…
#>  4 audi         a4           2    2008     4 auto… f        21    30 p     comp…
#>  5 audi         a4           2.8  1999     6 auto… f        16    26 p     comp…
#>  6 audi         a4           2.8  1999     6 manu… f        18    26 p     comp…
#>  7 audi         a4           3.1  2008     6 auto… f        18    27 p     comp…
#>  8 audi         a4 quattro   1.8  1999     4 manu… 4        18    26 p     comp…
#>  9 audi         a4 quattro   1.8  1999     4 auto… 4        16    25 p     comp…
#> 10 audi         a4 quattro   2    2008     4 manu… 4        20    28 p     comp…
#> # ℹ 224 more rows
…
