A R과 Python 연동하기 | R 프로그래밍 3판 (draft)
…
파이썬 명령 모듬의 파이썬 실행 결과를 적절한 형식으로 출력하여 문서에 포함시킨다. 특히 파이썬의 numpy, pandas, matplotlib 모듈의 그래프 결과를 적절한 형식으로 처리하여 출력한다.

R 세션에서 파이썬 모듬에서 생성한 객체를 접근할 수 있도록 해 준다. R 세션에 py라는 객체가 생성되어 py$x 형식으로 파이썬 세션에 생성된 x 객체에 대한 참조자를 제공한다.

파이썬 세션에서 R 모듬에서 생성한 객체 접근할 수 있도록 해 준다. 파이썬 세션에 r이라는 객체가 생성되어 r.x 형식으로 R 세션에 생성된 x 객체에 대한 참조자를 제공한다.

아울러 파이썬 세션에 R 객체가 전달될 때, R 세션에 파이썬 객체가 전달될 때 상호 자동 변환이 이루어진다.

다음은 R의 ggplot 패키지의 mpg 데이터를 파이썬 모듬에 전달하여 그래프를 그리고 통계 요약한 후, 그 결과를 다시 R로 보내서 출력한 예이다.

# R 모듬 1
library(ggplot2)
mpg

# A tibble: 234 × 11
   manufacturer model      displ  year   cyl trans drv     cty   hwy fl    class
   <chr>        <chr>      <dbl> <int> <int> <chr> <chr> <int> <int> <chr> <chr>
 1 audi         a4           1.8  1999     4 auto… f        18    29 p     comp…
 2 audi         a4           1.8  1999     4 manu… f        21    29 p     comp…
 3 audi         a4           2    2008     4 manu… f        20    31 p     comp…
 4 audi         a4           2    2008     4 auto… f        21    30 p     comp…
 5 audi         a4           2.8  1999     6 auto… f        16    26 p     comp…
 6 audi         a4           2.8  1999     6 manu… f        18    26 p     comp…
 7 audi         a4           3.1  2008     6 auto… f        18    27 p     comp…
 8 audi         a4 quattro   1.8  1999     4 manu… 4        18    26 p     comp…
 9 audi         a4 quattro   1.8  1999     4 auto… 4        16    25 p     comp…
10 audi         a4 quattro   2    2008     4 manu… 4        20    28 p     comp…
# ℹ 224 more rows
…
