Chapter 14 R 차원 축소 | R 프로그래밍 3판 (draft)
…
library(tidyverse)
batters <- read_csv("kbo-2024.csv", na = c("-"))

Rows: 100 Columns: 38
── Column specification ────────────────────────────────────────────────────────
Delimiter: ","
chr  (3): 선수명, 팀명, 포지션
dbl (35): 경기, 타석, 타수, 안타, 단타, 2루타, 3루타, 홈런, 득점, 타점, 볼넷, 고4, HBP, 삼진, 희플, 희타,...

ℹ Use `spec()` to retrieve the full column specification for this data.
ℹ Specify the column types or set `show_col_types = FALSE` to quiet this message.

batters

# A tibble: 100 × 38
   선수명 팀명  포지션  경기  타석  타수  안타  단타 `2루타` `3루타`  홈런  득점
   <chr>  <chr> <chr>  <dbl> <dbl> <dbl> <dbl> <dbl>   <dbl>   <dbl> <dbl> <dbl>
 1 김도영 KIA   내야수   141   625   544   189   112      29      10    38   143
 2 로하스 KT    외야수   144   670   572   188   116      39       1    32   108
 3 구자욱 삼성  외야수   129   568   493   169    96      39       1    33    92
 4 송성문 Hero  내야수   142   602   527   179   127      29       4    19    88
 5 최정   SSG   내야수   129   550   468   136    70      27       2    37    93
 6 에레…  SSG   외야수   136   591   541   195   142      31       1    21    82
 7 홍창기 LG    외야수   139   637   524   176   150      18       3     5    96
 8 데이…  NC    내야수   131   567   504   154    82      25       1    46    90
 9 레이…  롯데  외야수   144   632   574   202   144      40       3    15    88
10 오스틴 LG    내야수   140   604   527   168   101      32       3    32    99
# ℹ 90 more rows
# ℹ 26 more variables: 타점 <dbl>, 볼넷 <dbl>, 고4 <dbl>, HBP <dbl>,
#   삼진 <dbl>, 희플 <dbl>, 희타 <dbl>, 병살 <dbl>, 도루 <dbl>, 도실 <dbl>,
#   타율 <dbl>, BABIP <dbl>, `볼넷%` <dbl>, `삼진%` <dbl>, `볼/삼` <dbl>,
#   ISO <dbl>, `타수/홈런` <dbl>, OPS <dbl>, RC <dbl>, `RC/27` <dbl>,
#   wRC <dbl>, SPD <dbl>, wSB <dbl>, wOBA <dbl>, wRAA <dbl>, WAR <dbl>
…
