Chapter 12 R 데이터 수집 | R 프로그래밍 3판 (draft)
…
sr <- read_csv("suicide_rates.csv", show_col_types =F)

sr 변수를 출력해 보면 읽어들인 데이터를 확인할 수 있다.
suicide_rates.csv는 총 105개 국(Country)의 남여 자살률(Males, Females)과 조사년도(Year)에 대한 데이터이다.
read_csv()는 tibble` 형식으로 데이터를 반환하므로 처음 10 개 행만 출력하고, 열도 사용자의 콘솔의 폭이 충분하지 않으면 처음 몇 개의 열만 출력할 수 있다.

sr

# A tibble: 105 × 4
   Country              Year Males Females
   <chr>               <dbl> <dbl>   <dbl>
 1 ALBANIA                 3   4.7     3.3
 2 ANTIGUA AND BARBUDA    95   0       0  
 3 ARGENTINA               8  12.6     3  
 4 ARMENIA                 8   2.8     1.1
 5 AUSTRALIA               6  12.8     3.6
 6 AUSTRIA                 9  23.8     7.1
 7 AZERBAIJAN              7   1       0.3
 8 BAHAMAS                 5   1.9     0.6
 9 BAHRAIN                 6   4       3.5
10 BARBADOS                6   7.3     0  
# ℹ 95 more rows
…
range 인수는 Excel과 마찬가지로 셀 범위로 워크시트에서 읽어들일 데이터 범위를 지정한다. 디폴트 값은 비어있지 않은 모든 셀을 읽어들인다.

read_csv()와 read_excel()처럼 col_names, col_types, na, skip 등의 인수를 가지고 있다. 자세한 정보는 read_sheet()에 대한 도움말을 참조한다.

url <- "https://docs.google.com/spreadsheets/d/1U6Cf_qEOhiR9AZqTqS3mbMF3zt2db48ZP5v3rkrAEJY/"
life_exp_africa <- read_sheet(url)

✔ Reading from "gapminder".

✔ Range 'Africa'.

life_exp_africa

# A tibble: 624 × 6
   country continent  year lifeExp      pop gdpPercap
   <chr>   <chr>     <dbl>   <dbl>    <dbl>     <dbl>
 1 Algeria Africa     1952    43.1  9279525     2449.
 2 Algeria Africa     1957    45.7 10270856     3014.
 3 Algeria Africa     1962    48.3 11000948     2551.
 4 Algeria Africa     1967    51.4 12760499     3247.
 5 Algeria Africa     1972    54.5 14760787     4183.
 6 Algeria Africa     1977    58.0 17152804     4910.
 7 Algeria Africa     1982    61.4 20033753     5745.
 8 Algeria Africa     1987    65.8 23254956     5681.
 9 Algeria Africa     1992    67.7 26298373     5023.
10 Algeria Africa     1997    69.2 29072015     4797.
# ℹ 614 more rows
…
https://docs.google.com/spreadsheets/d/문서ID/edit#gid=워크시트ID

그러므로 다음처럼 URL을 참조하여 문서 ID로 데이터를 읽어올 수도 있다.

sheet_id <- "1U6Cf_qEOhiR9AZqTqS3mbMF3zt2db48ZP5v3rkrAEJY"
life_exp_asia <- read_sheet(sheet_id, sheet="Asia")

✔ Reading from "gapminder".

✔ Range ''Asia''.

life_exp_asia

# A tibble: 396 × 6
   country     continent  year lifeExp      pop gdpPercap
   <chr>       <chr>     <dbl>   <dbl>    <dbl>     <dbl>
 1 Afghanistan Asia       1952    28.8  8425333      779.
 2 Afghanistan Asia       1957    30.3  9240934      821.
 3 Afghanistan Asia       1962    32.0 10267083      853.
 4 Afghanistan Asia       1967    34.0 11537966      836.
 5 Afghanistan Asia       1972    36.1 13079460      740.
 6 Afghanistan Asia       1977    38.4 14880372      786.
 7 Afghanistan Asia       1982    39.9 12881816      978.
 8 Afghanistan Asia       1987    40.8 13867957      852.
 9 Afghanistan Asia       1992    41.7 16317921      649.
10 Afghanistan Asia       1997    41.8 22227415      635.
# ℹ 386 more rows
…
✔ Reading from "gapminder".

✔ Range ''Asia''.

✔ Reading from "gapminder".

✔ Range ''Europe''.

✔ Reading from "gapminder".

✔ Range ''Oceania''.

life_exp_all

# A tibble: 1,704 × 6
   country continent  year lifeExp      pop gdpPercap
   <chr>   <chr>     <dbl>   <dbl>    <dbl>     <dbl>
 1 Algeria Africa     1952    43.1  9279525     2449.
 2 Algeria Africa     1957    45.7 10270856     3014.
 3 Algeria Africa     1962    48.3 11000948     2551.
 4 Algeria Africa     1967    51.4 12760499     3247.
 5 Algeria Africa     1972    54.5 14760787     4183.
 6 Algeria Africa     1977    58.0 17152804     4910.
 7 Algeria Africa     1982    61.4 20033753     5745.
 8 Algeria Africa     1987    65.8 23254956     5681.
 9 Algeria Africa     1992    67.7 26298373     5023.
10 Algeria Africa     1997    69.2 29072015     4797.
# ℹ 1,694 more rows
…
 [1] 12693415  8177452 10581515  7264934  6982940  5884595  4352407  3327105
 [9]  2837413  2806501  2716306  2269033  2105834  2058869  7551990  1980773
[17]  1895856  1539364  3154410  1339242  1261131  1195443  1171648   904238
[25]   901426   899684   885419   837647   779489   783567   738122   730847
[33]   684667  1051490   663158   608639   581223   534291   490869   490145
[41]   475928   458720   447777   444417   416524   415969   412836  1029365
[49]   400329   398105

지금까지 추출된 정보를 이용하여 데이터프레임을 생성한다.

movies <- tibble(title, release, audience)
movies

# A tibble: 50 × 3
   title                              release    audience
   <chr>                              <date>        <dbl>
 1 범죄도시2                          2022-05-18 12693415
 2 탑건: 매버릭                       2022-06-22  8177452
 3 아바타: 물의 길                    2022-12-14 10581515
 4 한산: 용의 출현                    2022-07-27  7264934
 5 공조2: 인터내셔날                  2022-09-07  6982940
 6 닥터 스트레인지: 대혼돈의 멀티버스 2022-05-04  5884595
 7 헌트                               2022-08-10  4352407
 8 올빼미                             2022-11-23  3327105
 9 쥬라기 월드: 도미니언              2022-06-01  2837413
10 마녀(魔女) Part2. The Other One    2022-06-15  2806501
# ℹ 40 more rows
…
상영 기간이 서로 다른 영화들이므로 일일 평균 영화 관객수로 영화의 흥행도를 분석해 보자.

movies %>% 
  mutate(
    days = as.Date("20230206", "%Y%m%d") - release,
    aud_per_day = audience / as.numeric(days, units="days")
  ) %>% 
  arrange(desc(aud_per_day))

# A tibble: 50 × 5
   title                              release    audience days     aud_per_day
   <chr>                              <date>        <dbl> <drtn>         <dbl>
 1 아바타: 물의 길                    2022-12-14 10581515  54 days     195954.
 2 영웅                               2022-12-21  3154410  47 days      67115.
 3 범죄도시2                          2022-05-18 12693415 264 days      48081.
 4 공조2: 인터내셔날                  2022-09-07  6982940 152 days      45940.
 5 올빼미                             2022-11-23  3327105  75 days      44361.
 6 한산: 용의 출현                    2022-07-27  7264934 194 days      37448.
 7 탑건: 매버릭                       2022-06-22  8177452 229 days      35709.
 8 헌트                               2022-08-10  4352407 180 days      24180.
 9 블랙 팬서: 와칸다 포에버           2022-11-09  2105834  89 days      23661.
10 닥터 스트레인지: 대혼돈의 멀티버스 2022-05-04  5884595 278 days      21168.
# ℹ 40 more rows
…
