Chapter 8 ggplot2를 이용한 데이터 시각화 | R 프로그래밍 (개정판)
…
cut: 가공의 품질. Fair, Good, Very Good, Premium, Ideal

color: 색상. D(최상)에서 F(최하)까지

clarity: 투명도. I1(최하), SI2, SI1, VS2, VS1, VVS2, VVS1, IF(최상)

x, y, z: 길이, 폭, 깊이

depth: 깊이 비율 = z / mean(x, y)

table: 최대폭 대비 윗면의 폭의 길이 비율

> diamonds

# A tibble: 53,940 x 10
   carat cut       color clarity depth table price     x     y     z
   <dbl> <ord>     <ord> <ord>   <dbl> <dbl> <int> <dbl> <dbl> <dbl>
 1 0.23  Ideal     E     SI2      61.5    55   326  3.95  3.98  2.43
 2 0.21  Premium   E     SI1      59.8    61   326  3.89  3.84  2.31
 3 0.23  Good      E     VS1      56.9    65   327  4.05  4.07  2.31
 4 0.290 Premium   I     VS2      62.4    58   334  4.2   4.23  2.63
 5 0.31  Good      J     SI2      63.3    58   335  4.34  4.35  2.75
 6 0.24  Very Good J     VVS2     62.8    57   336  3.94  3.96  2.48
 7 0.24  Very Good I     VVS1     62.3    57   336  3.95  3.98  2.47
 8 0.26  Very Good H     SI1      61.9    55   337  4.07  4.11  2.53
 9 0.22  Fair      E     VS2      65.1    61   337  3.87  3.78  2.49
10 0.23  Very Good H     VS1      59.4    61   338  4     4.05  2.39
# ... with 53,930 more rows
…
labels: 축 눈금에 씌여질 레이블

lmites: 축의 상한과 하한

trans: 축에 별도의 변환을 적용할지 여부

position: 축의 그래프 상에서의 위치 등

ggplot2가 자동으로 설정한 이러한 요소가 원하는 것이 아니라면 직접 이를 조정해야 한다.

midwest 데이터는 미국 중서부의 각 카운티(county)의 인구통계 정보이다.

> midwest

# A tibble: 437 x 28
     PID county state  area poptotal popdensity popwhite popblack popamerindian
   <int> <chr>  <chr> <dbl>    <int>      <dbl>    <int>    <int>         <int>
 1   561 ADAMS  IL    0.052    66090      1271.    63917     1702            98
 2   562 ALEXA~ IL    0.014    10626       759      7054     3496            19
 3   563 BOND   IL    0.022    14991       681.    14477      429            35
 4   564 BOONE  IL    0.017    30806      1812.    29344      127            46
 5   565 BROWN  IL    0.018     5836       324.     5264      547            14
 6   566 BUREAU IL    0.05     35688       714.    35157       50            65
 7   567 CALHO~ IL    0.017     5322       313.     5298        1             8
 8   568 CARRO~ IL    0.027    16805       622.    16519      111            30
 9   569 CASS   IL    0.024    13437       560.    13384       16             8
10   570 CHAMP~ IL    0.058   173025      2983.   146506    16559           331
# ... with 427 more rows, and 19 more variables: popasian <int>,
#   popother <int>, percwhite <dbl>, percblack <dbl>, percamerindan <dbl>,
#   percasian <dbl>, percother <dbl>, popadults <int>, perchsd <dbl>,
#   percollege <dbl>, percprof <dbl>, poppovertyknown <int>,
#   percpovertyknown <dbl>, percbelowpoverty <dbl>, percchildbelowpovert <dbl>,
#   percadultpoverty <dbl>, percelderlypoverty <dbl>, inmetro <int>,
#   category <chr>
…
